{
    "advantageSetup": {
        "databaseName": "FreedomAdvantage",
        "serverName": "localhost",
        "instanceName": "sqldev2016",
        "username": "testmtiuser",
        "password": "Emphasys2015",
        "environment": 11018,
        "siteUrl": "http://localhost/advantage/current/site/",
        "apiUrl": "http://localhost/advantage/current/API/API",
        "serviceUrl": "http://localhost/advantage/current/services/",
        "reportExecution": "http://localhost/Reportserver_SQLDEV2016/ReportExecution2005.asmx",
        "reportServiceUrl": "http://localhost/Reportserver_SQLDEV2016/ReportService2005.asmx",
        "userRoleReport": "NT AUTHORITY\\NETWORK SERVICE"
    },
    "conversionSetup": {
        "conversionStructureFolder": "C:\\SSIS\\DB\\FreedomBridge",
        "server": "LocalHost\\sqldev2016"
    },
    "conversionCheck": {},
    "execute": {
        "ssisPathExecutable": "C:\\Program Files\\Microsoft SQL Server\\140\\DTS\\Binn\\DTExec.exe"
    },
    "schoolSetup": {
        "clientName": "FIRST",
        "campus": "FIRST_1",
        "freedomDataLocation": "C:\\SSIS\\DataToConvert\\5987 - F.I.R.S.T Institute",
        "freedomBackup": "FR_5987_FIRST_082119.bak",
        "schoolCode": 5987,
        "isInitialCampus": true,
        "useAcademicProbation": true,
        "freedomDbName": "FIRST_1",
        "advantageDbName": "FreedomAdvantage"
    },
    "serverAccess": {
        "databaseName": "TenantAuthDb",
        "serverName": "Localhost",
        "instanceName": "SQLDEV2016",
        "username": "sa",
        "password": "Fame.Fame4321",
        "backupDb":"FreedomAdvantage",
        "backupPath":"C:\\SSIS\\Freedom\\"
    }
}