{
  "Id": "7ee66b6e-df80-492b-930a-aef7c991a76b",
  "Name": "Covers changes to: TenantQuestions. Script created at 2018-01-23 10:11.",
  "ObjectIds": [
    {
      "Name": "TenantQuestions",
      "Owner": "dbo",
      "ObjectType": "Table"
    }
  ]
}