﻿<h3>MyTranscript</h3>
<p class="Contributor">
	Christoc.com <br />
	<a href="mailto:modules@christoc.com">modules@christoc.com</a><br />
	<a href=http://www.christoc.com>http://www.christoc.com</a><br />
</p>
<hr/>
<div class="License">
	<h3>About the MyTranscript</h3>
	<p class="Owner">
		<b>Version CHANGEME</b><br /><br />
	</p>
	<p>Description about version.</p>
	
	<h4>Bug Fixes</h4>
	<ul>
			<li>List</li>
			<li>of</li>
			<li>bug</li>
			<li>fixes</li>
	</ul>
	
</div>